…
As it stands, these data are not “tidy”: route number should be a
variable, as should route. That is, to obtain a tidy dataset we would
need to convert `route` variables from wide to long format. This will be
useful when focusing on specific routes, but may not be necessary when
considering questions that focus on station-level variables.

The following code chunk selects station name and line, and then uses
`distinct()` to obtain all unique combinations. As a result, the number
of rows in this dataset is the number of unique stations. .

``` r
trans_ent %>% 
  select(station_name, line) %>% 
  distinct()
## # A tibble: 465 × 2
##    station_name             line    
##    <chr>                    <chr>   
##  1 25th St                  4 Avenue
##  2 36th St                  4 Avenue
##  3 45th St                  4 Avenue
##  4 53rd St                  4 Avenue
##  5 59th St                  4 Avenue
##  6 77th St                  4 Avenue
##  7 86th St                  4 Avenue
##  8 95th St                  4 Avenue
##  9 9th St                   4 Avenue
## 10 Atlantic Av-Barclays Ctr 4 Avenue
## # ℹ 455 more rows
```

The next code chunk is similar, but filters according to ADA compliance
as an initial step. This produces a dataframe in which the number of
rows is the number of ADA compliant stations.

``` r
trans_ent %>% 
  filter(ada == TRUE) %>% 
  select(station_name, line) %>% 
  distinct()
## # A tibble: 84 × 2
##    station_name                   line           
##    <chr>                          <chr>          
##  1 Atlantic Av-Barclays Ctr       4 Avenue       
##  2 DeKalb Av                      4 Avenue       
##  3 Pacific St                     4 Avenue       
##  4 Grand Central                  42nd St Shuttle
##  5 34th St                        6 Avenue       
##  6 47-50th Sts Rockefeller Center 6 Avenue       
##  7 Church Av                      6 Avenue       
##  8 21st St                        63rd Street    
##  9 Lexington Av                   63rd Street    
## 10 Roosevelt Island               63rd Street    
## # ℹ 74 more rows
```
…
``` r
trans_ent %>% 
  pivot_longer(
    route1:route11,
    names_to = "route_num",
    values_to = "route") %>% 
  filter(route == "A") %>% 
  select(station_name, line) %>% 
  distinct()
## # A tibble: 60 × 2
##    station_name                  line           
##    <chr>                         <chr>          
##  1 Times Square                  42nd St Shuttle
##  2 125th St                      8 Avenue       
##  3 145th St                      8 Avenue       
##  4 14th St                       8 Avenue       
##  5 168th St - Washington Heights 8 Avenue       
##  6 175th St                      8 Avenue       
##  7 181st St                      8 Avenue       
##  8 190th St                      8 Avenue       
##  9 34th St                       8 Avenue       
## 10 42nd St                       8 Avenue       
## # ℹ 50 more rows
…
add an additional variable of sheet name:

``` r
mr_trash_wheel_df = mutate(pr_trash_wheel_df, trash_wheel = "Mr. Trash Wheel")
pr_trash_wheel_df = mutate(pr_trash_wheel_df, trash_wheel = "Professor Trash Wheel")
gw_trash_wheel_df = mutate(pr_trash_wheel_df, trash_wheel = "Gwynnda Trash Wheel")
```

combine 3 tabels together:

``` r
trash_wheel_df <- bind_rows(mr_trash_wheel_df, pr_trash_wheel_df, gw_trash_wheel_df)

trash_wheel_df
## # A tibble: 357 × 14
##    dumpster month     year date                weight_tons volume_cubic_yards
##       <dbl> <chr>    <dbl> <dttm>                    <dbl>              <dbl>
##  1        1 January   2017 2017-01-02 00:00:00        1.79                 15
##  2        2 January   2017 2017-01-30 00:00:00        1.58                 15
##  3        3 February  2017 2017-02-26 00:00:00        2.32                 18
##  4        4 February  2017 2017-02-26 00:00:00        3.72                 15
##  5        5 February  2017 2017-02-28 00:00:00        1.45                 15
##  6        6 March     2017 2017-03-30 00:00:00        1.71                 15
##  7        7 April     2017 2017-04-01 00:00:00        1.82                 15
##  8        8 April     2017 2017-04-20 00:00:00        2.37                 15
##  9        9 May       2017 2017-05-10 00:00:00        2.64                 15
## 10       10 May       2017 2017-05-26 00:00:00        2.78                 15
## # ℹ 347 more rows
## # ℹ 8 more variables: plastic_bottles <dbl>, polystyrene <dbl>,
## #   cigarette_butts <dbl>, glass_bottles <dbl>, plastic_bags <dbl>,
## #   wrappers <dbl>, homes_powered <dbl>, trash_wheel <chr>
```
…
